{"href":"https://api.spotify.com/v1/users/swagnobu/playlists?offset=0&limit=20","items":[{"collaborative":false,"description":"","external_urls":{"spotify":"https://open.spotify.com/playlist/3O1cLBtvdzftCbnXW4rOiW"},"href":"https://api.spotify.com/v1/playlists/3O1cLBtvdzftCbnXW4rOiW","id":"3O1cLBtvdzftCbnXW4rOiW","images":[{"height":640,"url":"https://mosaic.scdn.co/640/ab67616d0000b2734ab2520c2c77a1d66b9ee21dab67616d0000b273d0385fbee8faa520cbd46630ab67616d0000b273d72fb5571087bca0a2fed008ab67616d0000b273eefa3ed06dec22db89d0e793","width":640},{"height":300,"url":"https://mosaic.scdn.co/300/ab67616d0000b2734ab2520c2c77a1d66b9ee21dab67616d0000b273d0385fbee8faa520cbd46630ab67616d0000b273d72fb5571087bca0a2fed008ab67616d0000b273eefa3ed06dec22db89d0e793","width":300},{"height":60,"url":"https://mosaic.scdn.co/60/ab67616d0000b2734ab2520c2c77a1d66b9ee21dab67616d0000b273d0385fbee8faa520cbd46630ab67616d0000b273d72fb5571087bca0a2fed008ab67616d0000b273eefa3ed06dec22db89d0e793","width":60}],"name":"listenwc","owner":{"display_name":"shino","external_urls":{"spotify":"https://open.spotify.com/user/swagnobu"},"href":"https://api.spotify.com/v1/users/swagnobu","id":"swagnobu","type":"user","uri":"spotify:user:swagnobu"},"primary_color":null,"public":true,"snapshot_id":"MzUsOGQxYzk0ZjJjZjhmZmY4YjQyNWRiM2M5MzA3YjU0MmMzYTk4ZDZlNg==","tracks":{"href":"https://api.spotify.com/v1/playlists/3O1cLBtvdzftCbnXW4rOiW/tracks","total":34},"type":"playlist","uri":"spotify:playlist:3O1cLBtvdzftCbnXW4rOiW"},{"collaborative":false,"description":"","external_urls":{"spotify":"https://open.spotify.com/playlist/5XI1MgpPFnJvQiikrVJR8I"},"href":"https://api.spotify.com/v1/playlists/5XI1MgpPFnJvQiikrVJR8I","id":"5XI1MgpPFnJvQiikrVJR8I","images":[{"height":640,"url":"https://i.scdn.co/image/ab67616d0000b2731abab2321367e36e17a13dee","width":640}],"name":"interesting","owner":{"display_name":"shino","external_urls":{"spotify":"https://open.spotify.com/user/swagnobu"},"href":"https://api.spotify.com/v1/users/swagnobu","id":"swagnobu","type":"user","uri":"spotify:user:swagnobu"},"primary_color":null,"public":true,"snapshot_id":"NCw0ZjFhNTYzYjI0N2JlYTgxMjRmMDczYWZkZDg5NWZjYTM0NzJhMzgy","tracks":{"href":"https://api.spotify.com/v1/playlists/5XI1MgpPFnJvQiikrVJR8I/tracks","total":2},"type":"playlist","uri":"spotify:playlist:5XI1MgpPFnJvQiikrVJR8I"},{"collaborative":false,"description":"","external_urls":{"spotify":"https://open.spotify.com/playlist/7m11jy9lmUlGtF8xIxTz8B"},"href":"https://api.spotify.com/v1/playlists/7m11jy9lmUlGtF8xIxTz8B","id":"7m11jy9lmUlGtF8xIxTz8B","images":[{"height":640,"url":"https://mosaic.scdn.co/640/ab67616d0000b2736f0de4976b9f4086b079f8fbab67616d0000b2739e24f80be11f5dbd58d035e8ab67616d0000b273f4179c19ab5290b47d96e117ab67616d0000b273f74e0449297dd501783fb1f3","width":640},{"height":300,"url":"https://mosaic.scdn.co/300/ab67616d0000b2736f0de4976b9f4086b079f8fbab67616d0000b2739e24f80be11f5dbd58d035e8ab67616d0000b273f4179c19ab5290b47d96e117ab67616d0000b273f74e0449297dd501783fb1f3","width":300},{"height":60,"url":"https://mosaic.scdn.co/60/ab67616d0000b2736f0de4976b9f4086b079f8fbab67616d0000b2739e24f80be11f5dbd58d035e8ab67616d0000b273f4179c19ab5290b47d96e117ab67616d0000b273f74e0449297dd501783fb1f3","width":60}],"name":"ex 1","owner":{"display_name":"shino","external_urls":{"spotify":"https://open.spotify.com/user/swagnobu"},"href":"https://api.spotify.com/v1/users/swagnobu","id":"swagnobu","type":"user","uri":"spotify:user:swagnobu"},"primary_color":null,"public":true,"snapshot_id":"MTIsNTFmOWVmYmFjMmUzNGI1N2YxODY5OWE1YzUwOTM4MTBhOGE0YTU1Mg==","tracks":{"href":"https://api.spotify.com/v1/playlists/7m11jy9lmUlGtF8xIxTz8B/tracks","total":10},"type":"playlist","uri":"spotify:playlist:7m11jy9lmUlGtF8xIxTz8B"},{"collaborative":false,"description":"","external_urls":{"spotify":"https://open.spotify.com/playlist/0RIKlMzU1k29xFzEulJJ0c"},"href":"https://api.spotify.com/v1/playlists/0RIKlMzU1k29xFzEulJJ0c","id":"0RIKlMzU1k29xFzEulJJ0c","images":[{"height":640,"url":"https://mosaic.scdn.co/640/ab67616d0000b273682a1a12fa1ffe348e03a328ab67616d0000b273a1f748bf1c1e69b3e36a21eaab67616d0000b273c5653f9038e42efad2f8a266ab67616d0000b273e8dd4db47e7177c63b0b7d53","width":640},{"height":300,"url":"https://mosaic.scdn.co/300/ab67616d0000b273682a1a12fa1ffe348e03a328ab67616d0000b273a1f748bf1c1e69b3e36a21eaab67616d0000b273c5653f9038e42efad2f8a266ab67616d0000b273e8dd4db47e7177c63b0b7d53","width":300},{"height":60,"url":"https://mosaic.scdn.co/60/ab67616d0000b273682a1a12fa1ffe348e03a328ab67616d0000b273a1f748bf1c1e69b3e36a21eaab67616d0000b273c5653f9038e42efad2f8a266ab67616d0000b273e8dd4db47e7177c63b0b7d53","width":60}],"name":"unanimity","owner":{"display_name":"shino","external_urls":{"spotify":"https://open.spotify.com/user/swagnobu"},"href":"https://api.spotify.com/v1/users/swagnobu","id":"swagnobu","type":"user","uri":"spotify:user:swagnobu"},"primary_color":null,"public":false,"snapshot_id":"NDIsOTIxYTk0MGUwYjk0YWM4MjIyYTk5MDc5NmU5MjM3ZjU4NDk0MzVkZA==","tracks":{"href":"https://api.spotify.com/v1/playlists/0RIKlMzU1k29xFzEulJJ0c/tracks","total":39},"type":"playlist","uri":"spotify:playlist:0RIKlMzU1k29xFzEulJJ0c"},{"collaborative":false,"description":"","external_urls":{"spotify":"https://open.spotify.com/playlist/7EQMsyx9egCpsOasSMJCeR"},"href":"https://api.spotify.com/v1/playlists/7EQMsyx9egCpsOasSMJCeR","id":"7EQMsyx9egCpsOasSMJCeR","images":[{"height":640,"url":"https://i.scdn.co/image/ab67616d0000b27302c5106bd25321cd34e96bb8","width":640}],"name":"upbeat","owner":{"display_name":"shino","external_urls":{"spotify":"https://open.spotify.com/user/swagnobu"},"href":"https://api.spotify.com/v1/users/swagnobu","id":"swagnobu","type":"user","uri":"spotify:user:swagnobu"},"primary_color":null,"public":true,"snapshot_id":"NCwzOGNhNjY5MGM1MmYxYWM5NjM5NjJiN2MzMWJkMzc2ODMwZjRhNWQ5","tracks":{"href":"https://api.spotify.com/v1/playlists/7EQMsyx9egCpsOasSMJCeR/tracks","total":2},"type":"playlist","uri":"spotify:playlist:7EQMsyx9egCpsOasSMJCeR"},{"collaborative":false,"description":"","external_urls":{"spotify":"https://open.spotify.com/playlist/3zsctAWSLGZ0oXPFpUpys4"},"href":"https://api.spotify.com/v1/playlists/3zsctAWSLGZ0oXPFpUpys4","id":"3zsctAWSLGZ0oXPFpUpys4","images":[{"height":640,"url":"https://mosaic.scdn.co/640/ab67616d0000b273327abaf9361dd2f153817ce1ab67616d0000b273382ddf73e0132cecf399c718ab67616d0000b273dbdf2f63051b6b33b5a4a399ab67616d0000b273ed698663b54902f1e4937a36","width":640},{"height":300,"url":"https://mosaic.scdn.co/300/ab67616d0000b273327abaf9361dd2f153817ce1ab67616d0000b273382ddf73e0132cecf399c718ab67616d0000b273dbdf2f63051b6b33b5a4a399ab67616d0000b273ed698663b54902f1e4937a36","width":300},{"height":60,"url":"https://mosaic.scdn.co/60/ab67616d0000b273327abaf9361dd2f153817ce1ab67616d0000b273382ddf73e0132cecf399c718ab67616d0000b273dbdf2f63051b6b33b5a4a399ab67616d0000b273ed698663b54902f1e4937a36","width":60}],"name":"torture","owner":{"display_name":"shino","external_urls":{"spotify":"https://open.spotify.com/user/swagnobu"},"href":"https://api.spotify.com/v1/users/swagnobu","id":"swagnobu","type":"user","uri":"spotify:user:swagnobu"},"primary_color":null,"public":false,"snapshot_id":"MTAwLGY5YjgxYTFhZDAyYjA2MWQ4ZDYwMmY2NThjM2YwNmNkZmFmNDYwMGY=","tracks":{"href":"https://api.spotify.com/v1/playlists/3zsctAWSLGZ0oXPFpUpys4/tracks","total":91},"type":"playlist","uri":"spotify:playlist:3zsctAWSLGZ0oXPFpUpys4"},{"collaborative":false,"description":"songs i wont get distracted by, apparently also known as the feryquitous playlist CORRECTION: fixed","external_urls":{"spotify":"https://open.spotify.com/playlist/2C7FjiwICNdKlMiLYmYbm7"},"href":"https://api.spotify.com/v1/playlists/2C7FjiwICNdKlMiLYmYbm7","id":"2C7FjiwICNdKlMiLYmYbm7","images":[{"height":640,"url":"https://mosaic.scdn.co/640/ab67616d0000b27357505a9447c473ba0b1f2aa1ab67616d0000b273a7ac114479551e46919901d8ab67616d0000b273ebff8574dfd970cc71b5391fab67616d0000b273f6996c4443f0d71f0b2c5d7c","width":640},{"height":300,"url":"https://mosaic.scdn.co/300/ab67616d0000b27357505a9447c473ba0b1f2aa1ab67616d0000b273a7ac114479551e46919901d8ab67616d0000b273ebff8574dfd970cc71b5391fab67616d0000b273f6996c4443f0d71f0b2c5d7c","width":300},{"height":60,"url":"https://mosaic.scdn.co/60/ab67616d0000b27357505a9447c473ba0b1f2aa1ab67616d0000b273a7ac114479551e46919901d8ab67616d0000b273ebff8574dfd970cc71b5391fab67616d0000b273f6996c4443f0d71f0b2c5d7c","width":60}],"name":"homework","owner":{"display_name":"shino","external_urls":{"spotify":"https://open.spotify.com/user/swagnobu"},"href":"https://api.spotify.com/v1/users/swagnobu","id":"swagnobu","type":"user","uri":"spotify:user:swagnobu"},"primary_color":null,"public":false,"snapshot_id":"MTg4LGRjNDA5NjVmNmE0NGM4NDg3NDRmN2E4MTBiODA1YWY0ZTFiNTQ2MTQ=","tracks":{"href":"https://api.spotify.com/v1/playlists/2C7FjiwICNdKlMiLYmYbm7/tracks","total":129},"type":"playlist","uri":"spotify:playlist:2C7FjiwICNdKlMiLYmYbm7"},{"collaborative":false,"description":"songs i think are like actually just beautiful","external_urls":{"spotify":"https://open.spotify.com/playlist/6zbkR2Y0oCAFR5IOzH4VdD"},"href":"https://api.spotify.com/v1/playlists/6zbkR2Y0oCAFR5IOzH4VdD","id":"6zbkR2Y0oCAFR5IOzH4VdD","images":[{"height":640,"url":"https://mosaic.scdn.co/640/ab67616d0000b273251186c616a9484a3b5fb3b2ab67616d0000b2733378545422c5257483f6230eab67616d0000b27347188c9ed18ac386f8ead3d4ab67616d0000b2738c8d5428b693308705e7caca","width":640},{"height":300,"url":"https://mosaic.scdn.co/300/ab67616d0000b273251186c616a9484a3b5fb3b2ab67616d0000b2733378545422c5257483f6230eab67616d0000b27347188c9ed18ac386f8ead3d4ab67616d0000b2738c8d5428b693308705e7caca","width":300},{"height":60,"url":"https://mosaic.scdn.co/60/ab67616d0000b273251186c616a9484a3b5fb3b2ab67616d0000b2733378545422c5257483f6230eab67616d0000b27347188c9ed18ac386f8ead3d4ab67616d0000b2738c8d5428b693308705e7caca","width":60}],"name":"perfection","owner":{"display_name":"shino","external_urls":{"spotify":"https://open.spotify.com/user/swagnobu"},"href":"https://api.spotify.com/v1/users/swagnobu","id":"swagnobu","type":"user","uri":"spotify:user:swagnobu"},"primary_color":null,"public":true,"snapshot_id":"MTEsNzNlMzQwNmEyMWE4YWE2OWZmMWRkMWNiMmJmZGY2NWE5YTk1OWRlYw==","tracks":{"href":"https://api.spotify.com/v1/playlists/6zbkR2Y0oCAFR5IOzH4VdD/tracks","total":8},"type":"playlist","uri":"spotify:playlist:6zbkR2Y0oCAFR5IOzH4VdD"},{"collaborative":false,"description":"man wouldn&#x27;t it be wild if jazz had imaginary numbers too","external_urls":{"spotify":"https://open.spotify.com/playlist/6BZVNXNRQpcxYqzputq1dA"},"href":"https://api.spotify.com/v1/playlists/6BZVNXNRQpcxYqzputq1dA","id":"6BZVNXNRQpcxYqzputq1dA","images":[{"height":640,"url":"https://mosaic.scdn.co/640/ab67616d0000b273c4f672078a1e58460b23e1eaab67616d0000b273c78960bdfdb013f74995788fab67616d0000b273db23689257e028fe49d1dd0fab67616d0000b273e4c07796df2a709b3c0ad243","width":640},{"height":300,"url":"https://mosaic.scdn.co/300/ab67616d0000b273c4f672078a1e58460b23e1eaab67616d0000b273c78960bdfdb013f74995788fab67616d0000b273db23689257e028fe49d1dd0fab67616d0000b273e4c07796df2a709b3c0ad243","width":300},{"height":60,"url":"https://mosaic.scdn.co/60/ab67616d0000b273c4f672078a1e58460b23e1eaab67616d0000b273c78960bdfdb013f74995788fab67616d0000b273db23689257e028fe49d1dd0fab67616d0000b273e4c07796df2a709b3c0ad243","width":60}],"name":"irrationality","owner":{"display_name":"shino","external_urls":{"spotify":"https://open.spotify.com/user/swagnobu"},"href":"https://api.spotify.com/v1/users/swagnobu","id":"swagnobu","type":"user","uri":"spotify:user:swagnobu"},"primary_color":null,"public":true,"snapshot_id":"MjIsNWI5NjAwZTUyNTA4ZDQ2OWM1YzM5Mzk5YTdlNDJiY2QzNjJjNjkyNw==","tracks":{"href":"https://api.spotify.com/v1/playlists/6BZVNXNRQpcxYqzputq1dA/tracks","total":18},"type":"playlist","uri":"spotify:playlist:6BZVNXNRQpcxYqzputq1dA"},{"collaborative":false,"description":"A blend of music for shino and Lizzie. Updates daily.","external_urls":{"spotify":"https://open.spotify.com/playlist/37i9dQZF1EJIPR2HX4ii1l"},"href":"https://api.spotify.com/v1/playlists/37i9dQZF1EJIPR2HX4ii1l","id":"37i9dQZF1EJIPR2HX4ii1l","images":[{"height":null,"url":"https://blend-playlist-covers.spotifycdn.com/v2/blend_LARGE-gold-yellow-en.jpg","width":null}],"name":"Lizzie + shino","owner":{"display_name":"Spotify","external_urls":{"spotify":"https://open.spotify.com/user/spotify"},"href":"https://api.spotify.com/v1/users/spotify","id":"spotify","type":"user","uri":"spotify:user:spotify"},"primary_color":null,"public":false,"snapshot_id":"MCwwMDAwMDAwMDUyZjA1ZmIzMTk1MDA5NDlkZjE0MjZiZWFiY2JlZWRl","tracks":{"href":"https://api.spotify.com/v1/playlists/37i9dQZF1EJIPR2HX4ii1l/tracks","total":0},"type":"playlist","uri":"spotify:playlist:37i9dQZF1EJIPR2HX4ii1l"},{"collaborative":false,"description":"i was motivated by motivation to make this motivation playlist to listen to so i feel more motivated","external_urls":{"spotify":"https://open.spotify.com/playlist/70tFTEAPSqfT1xeLbvBaEA"},"href":"https://api.spotify.com/v1/playlists/70tFTEAPSqfT1xeLbvBaEA","id":"70tFTEAPSqfT1xeLbvBaEA","images":[{"height":640,"url":"https://mosaic.scdn.co/640/ab67616d0000b273216fa486e2c3e899cacfe6bfab67616d0000b273d72fb5571087bca0a2fed008ab67616d0000b273f344689a8e91e2ac58e2c4d0ab67616d0000b273f70be1284fe4d1f85dc44aa5","width":640},{"height":300,"url":"https://mosaic.scdn.co/300/ab67616d0000b273216fa486e2c3e899cacfe6bfab67616d0000b273d72fb5571087bca0a2fed008ab67616d0000b273f344689a8e91e2ac58e2c4d0ab67616d0000b273f70be1284fe4d1f85dc44aa5","width":300},{"height":60,"url":"https://mosaic.scdn.co/60/ab67616d0000b273216fa486e2c3e899cacfe6bfab67616d0000b273d72fb5571087bca0a2fed008ab67616d0000b273f344689a8e91e2ac58e2c4d0ab67616d0000b273f70be1284fe4d1f85dc44aa5","width":60}],"name":"motive","owner":{"display_name":"shino","external_urls":{"spotify":"https://open.spotify.com/user/swagnobu"},"href":"https://api.spotify.com/v1/users/swagnobu","id":"swagnobu","type":"user","uri":"spotify:user:swagnobu"},"primary_color":null,"public":true,"snapshot_id":"NixlMTU1ZjYyMDJhNzExMzQ5NTYxYTBiNmFmZGE2YjJjZmE4ZGRkZjAx","tracks":{"href":"https://api.spotify.com/v1/playlists/70tFTEAPSqfT1xeLbvBaEA/tracks","total":4},"type":"playlist","uri":"spotify:playlist:70tFTEAPSqfT1xeLbvBaEA"},{"collaborative":false,"description":"musically expressing my obsession with prime numbers","external_urls":{"spotify":"https://open.spotify.com/playlist/5PFHcY0EyJqIAknkkJDNSd"},"href":"https://api.spotify.com/v1/playlists/5PFHcY0EyJqIAknkkJDNSd","id":"5PFHcY0EyJqIAknkkJDNSd","images":[{"height":640,"url":"https://mosaic.scdn.co/640/ab67616d0000b2737a799cc62e624fd6432779e3ab67616d0000b273a0e46f5b1e78528ad28512b5ab67616d0000b273b1f34ef076fa08580a052745ab67616d0000b273ce1e5e660bb6788daef4d59e","width":640},{"height":300,"url":"https://mosaic.scdn.co/300/ab67616d0000b2737a799cc62e624fd6432779e3ab67616d0000b273a0e46f5b1e78528ad28512b5ab67616d0000b273b1f34ef076fa08580a052745ab67616d0000b273ce1e5e660bb6788daef4d59e","width":300},{"height":60,"url":"https://mosaic.scdn.co/60/ab67616d0000b2737a799cc62e624fd6432779e3ab67616d0000b273a0e46f5b1e78528ad28512b5ab67616d0000b273b1f34ef076fa08580a052745ab67616d0000b273ce1e5e660bb6788daef4d59e","width":60}],"name":"mathematics","owner":{"display_name":"shino","external_urls":{"spotify":"https://open.spotify.com/user/swagnobu"},"href":"https://api.spotify.com/v1/users/swagnobu","id":"swagnobu","type":"user","uri":"spotify:user:swagnobu"},"primary_color":null,"public":true,"snapshot_id":"MjcsNTdmOTEwOWIxY2JmNDVhNmI5NDRkOGFmY2Q0YWNmZmY3ZThjYTU1NA==","tracks":{"href":"https://api.spotify.com/v1/playlists/5PFHcY0EyJqIAknkkJDNSd/tracks","total":20},"type":"playlist","uri":"spotify:playlist:5PFHcY0EyJqIAknkkJDNSd"},{"collaborative":false,"description":"underrated and underused sounds in modern music","external_urls":{"spotify":"https://open.spotify.com/playlist/6PxrU0ZEgr93BHvmniZ3Sy"},"href":"https://api.spotify.com/v1/playlists/6PxrU0ZEgr93BHvmniZ3Sy","id":"6PxrU0ZEgr93BHvmniZ3Sy","images":[{"height":640,"url":"https://mosaic.scdn.co/640/ab67616d0000b2733e0ffdcedde1bd70749a01adab67616d0000b2736f51e2b6a703aa6bc4eedd0aab67616d0000b273795471a42d0583e8e4a4af6fab67616d0000b27381ed517b44b758ac8c5653bb","width":640},{"height":300,"url":"https://mosaic.scdn.co/300/ab67616d0000b2733e0ffdcedde1bd70749a01adab67616d0000b2736f51e2b6a703aa6bc4eedd0aab67616d0000b273795471a42d0583e8e4a4af6fab67616d0000b27381ed517b44b758ac8c5653bb","width":300},{"height":60,"url":"https://mosaic.scdn.co/60/ab67616d0000b2733e0ffdcedde1bd70749a01adab67616d0000b2736f51e2b6a703aa6bc4eedd0aab67616d0000b273795471a42d0583e8e4a4af6fab67616d0000b27381ed517b44b758ac8c5653bb","width":60}],"name":"orchestral","owner":{"display_name":"shino","external_urls":{"spotify":"https://open.spotify.com/user/swagnobu"},"href":"https://api.spotify.com/v1/users/swagnobu","id":"swagnobu","type":"user","uri":"spotify:user:swagnobu"},"primary_color":null,"public":true,"snapshot_id":"MjQsZjY0YTZhOTdjMzY1MjY3NGUzM2NmMmUwNjdmYzc3N2U0OTQ3OWIwMQ==","tracks":{"href":"https://api.spotify.com/v1/playlists/6PxrU0ZEgr93BHvmniZ3Sy/tracks","total":17},"type":"playlist","uri":"spotify:playlist:6PxrU0ZEgr93BHvmniZ3Sy"},{"collaborative":false,"description":"like the opposite of nostalgia?","external_urls":{"spotify":"https://open.spotify.com/playlist/0d6J44qyJu3cZO4O2vSwdO"},"href":"https://api.spotify.com/v1/playlists/0d6J44qyJu3cZO4O2vSwdO","id":"0d6J44qyJu3cZO4O2vSwdO","images":[{"height":640,"url":"https://mosaic.scdn.co/640/ab67616d0000b2733378545422c5257483f6230eab67616d0000b27387c7b7c25797e25c4df9b55aab67616d0000b273ad203d8e45b946ba40f4b71eab67616d0000b273c246a30dbeac0ddc32f5ff2e","width":640},{"height":300,"url":"https://mosaic.scdn.co/300/ab67616d0000b2733378545422c5257483f6230eab67616d0000b27387c7b7c25797e25c4df9b55aab67616d0000b273ad203d8e45b946ba40f4b71eab67616d0000b273c246a30dbeac0ddc32f5ff2e","width":300},{"height":60,"url":"https://mosaic.scdn.co/60/ab67616d0000b2733378545422c5257483f6230eab67616d0000b27387c7b7c25797e25c4df9b55aab67616d0000b273ad203d8e45b946ba40f4b71eab67616d0000b273c246a30dbeac0ddc32f5ff2e","width":60}],"name":"growth","owner":{"display_name":"shino","external_urls":{"spotify":"https://open.spotify.com/user/swagnobu"},"href":"https://api.spotify.com/v1/users/swagnobu","id":"swagnobu","type":"user","uri":"spotify:user:swagnobu"},"primary_color":null,"public":true,"snapshot_id":"OSxkNzgwMzFkNGNkZjYzYTYzMWZjNTZjNjQwYjkzNTZkYjQ2NjI0ZWRj","tracks":{"href":"https://api.spotify.com/v1/playlists/0d6J44qyJu3cZO4O2vSwdO/tracks","total":7},"type":"playlist","uri":"spotify:playlist:0d6J44qyJu3cZO4O2vSwdO"},{"collaborative":false,"description":"haha funny","external_urls":{"spotify":"https://open.spotify.com/playlist/2sJQqYYoNSHmlMwtUUhozD"},"href":"https://api.spotify.com/v1/playlists/2sJQqYYoNSHmlMwtUUhozD","id":"2sJQqYYoNSHmlMwtUUhozD","images":[{"height":640,"url":"https://i.scdn.co/image/ab67616d0000b2733bf75078ced6f5161cf86878","width":640}],"name":"amused","owner":{"display_name":"shino","external_urls":{"spotify":"https://open.spotify.com/user/swagnobu"},"href":"https://api.spotify.com/v1/users/swagnobu","id":"swagnobu","type":"user","uri":"spotify:user:swagnobu"},"primary_color":null,"public":true,"snapshot_id":"Niw1NmQwNDY0OTE0MGNlZTllNGZmYTgyNDU5YWJiZDY2ZmFkODFkYWVm","tracks":{"href":"https://api.spotify.com/v1/playlists/2sJQqYYoNSHmlMwtUUhozD/tracks","total":3},"type":"playlist","uri":"spotify:playlist:2sJQqYYoNSHmlMwtUUhozD"},{"collaborative":false,"description":"but like don&#x27;t actually, that&#x27;s disrespectful to your neighbors.","external_urls":{"spotify":"https://open.spotify.com/playlist/2EGQB0QfOD2Bd1p8In67nz"},"href":"https://api.spotify.com/v1/playlists/2EGQB0QfOD2Bd1p8In67nz","id":"2EGQB0QfOD2Bd1p8In67nz","images":[{"height":640,"url":"https://mosaic.scdn.co/640/ab67616d0000b273892ab7af113e812930621b77ab67616d0000b273d72fb5571087bca0a2fed008ab67616d0000b273f4862b4fa494ef26fd8f199eab67616d0000b273fe1a9aa59e3c6189a09ae37a","width":640},{"height":300,"url":"https://mosaic.scdn.co/300/ab67616d0000b273892ab7af113e812930621b77ab67616d0000b273d72fb5571087bca0a2fed008ab67616d0000b273f4862b4fa494ef26fd8f199eab67616d0000b273fe1a9aa59e3c6189a09ae37a","width":300},{"height":60,"url":"https://mosaic.scdn.co/60/ab67616d0000b273892ab7af113e812930621b77ab67616d0000b273d72fb5571087bca0a2fed008ab67616d0000b273f4862b4fa494ef26fd8f199eab67616d0000b273fe1a9aa59e3c6189a09ae37a","width":60}],"name":"bangers","owner":{"display_name":"shino","external_urls":{"spotify":"https://open.spotify.com/user/swagnobu"},"href":"https://api.spotify.com/v1/users/swagnobu","id":"swagnobu","type":"user","uri":"spotify:user:swagnobu"},"primary_color":null,"public":false,"snapshot_id":"MjYyLDYwNmI5MGYyYzYxZDY3ZjdlNDk4N2JlYzI3ZTdhNzhhYzdiN2QwMmE=","tracks":{"href":"https://api.spotify.com/v1/playlists/2EGQB0QfOD2Bd1p8In67nz/tracks","total":227},"type":"playlist","uri":"spotify:playlist:2EGQB0QfOD2Bd1p8In67nz"},{"collaborative":false,"description":"only allowed to play between the times of 4-8am","external_urls":{"spotify":"https://open.spotify.com/playlist/7qhsInD8G6JHtDhPgK78NI"},"href":"https://api.spotify.com/v1/playlists/7qhsInD8G6JHtDhPgK78NI","id":"7qhsInD8G6JHtDhPgK78NI","images":[{"height":640,"url":"https://mosaic.scdn.co/640/ab67616d0000b2730e30ac5b9c90632e1952b693ab67616d0000b27351804e24a3f404c3f6de39d6ab67616d0000b27369592e88bb29d610a35118f8ab67616d0000b273bf8b58fae463cc46ea73a6aa","width":640},{"height":300,"url":"https://mosaic.scdn.co/300/ab67616d0000b2730e30ac5b9c90632e1952b693ab67616d0000b27351804e24a3f404c3f6de39d6ab67616d0000b27369592e88bb29d610a35118f8ab67616d0000b273bf8b58fae463cc46ea73a6aa","width":300},{"height":60,"url":"https://mosaic.scdn.co/60/ab67616d0000b2730e30ac5b9c90632e1952b693ab67616d0000b27351804e24a3f404c3f6de39d6ab67616d0000b27369592e88bb29d610a35118f8ab67616d0000b273bf8b58fae463cc46ea73a6aa","width":60}],"name":"relaxed","owner":{"display_name":"shino","external_urls":{"spotify":"https://open.spotify.com/user/swagnobu"},"href":"https://api.spotify.com/v1/users/swagnobu","id":"swagnobu","type":"user","uri":"spotify:user:swagnobu"},"primary_color":null,"public":true,"snapshot_id":"NDksZDJkNzRlNDNkMmEwMTNhY2ZiYmFjMGE5MDhmYWYzMGE2MDAzNDRmYQ==","tracks":{"href":"https://api.spotify.com/v1/playlists/7qhsInD8G6JHtDhPgK78NI/tracks","total":47},"type":"playlist","uri":"spotify:playlist:7qhsInD8G6JHtDhPgK78NI"},{"collaborative":false,"description":"big depresso","external_urls":{"spotify":"https://open.spotify.com/playlist/4Kd0BsgwT3dU0rVEv0I114"},"href":"https://api.spotify.com/v1/playlists/4Kd0BsgwT3dU0rVEv0I114","id":"4Kd0BsgwT3dU0rVEv0I114","images":[{"height":640,"url":"https://mosaic.scdn.co/640/ab67616d0000b2730fad0b0d3a84c57541a4de10ab67616d0000b273251186c616a9484a3b5fb3b2ab67616d0000b273254817f177f9c0d1e8776402ab67616d0000b27384501102111aef7bc85a28c5","width":640},{"height":300,"url":"https://mosaic.scdn.co/300/ab67616d0000b2730fad0b0d3a84c57541a4de10ab67616d0000b273251186c616a9484a3b5fb3b2ab67616d0000b273254817f177f9c0d1e8776402ab67616d0000b27384501102111aef7bc85a28c5","width":300},{"height":60,"url":"https://mosaic.scdn.co/60/ab67616d0000b2730fad0b0d3a84c57541a4de10ab67616d0000b273251186c616a9484a3b5fb3b2ab67616d0000b273254817f177f9c0d1e8776402ab67616d0000b27384501102111aef7bc85a28c5","width":60}],"name":"feels","owner":{"display_name":"shino","external_urls":{"spotify":"https://open.spotify.com/user/swagnobu"},"href":"https://api.spotify.com/v1/users/swagnobu","id":"swagnobu","type":"user","uri":"spotify:user:swagnobu"},"primary_color":null,"public":true,"snapshot_id":"NDYsNzRlMTgzMGQwZTliYjk4MmE1NTk2ZGRiOWI2MWZhYmFiMjBmNjYxZQ==","tracks":{"href":"https://api.spotify.com/v1/playlists/4Kd0BsgwT3dU0rVEv0I114/tracks","total":39},"type":"playlist","uri":"spotify:playlist:4Kd0BsgwT3dU0rVEv0I114"},{"collaborative":false,"description":"slightly above 23°C","external_urls":{"spotify":"https://open.spotify.com/playlist/0lHlZADt0BPMtMcdRrLL2i"},"href":"https://api.spotify.com/v1/playlists/0lHlZADt0BPMtMcdRrLL2i","id":"0lHlZADt0BPMtMcdRrLL2i","images":[{"height":640,"url":"https://mosaic.scdn.co/640/ab67616d0000b27325dd1a3969c0912291b6fc7bab67616d0000b273327abaf9361dd2f153817ce1ab67616d0000b2735b1beffbc87fe6028af43595ab67616d0000b27379c70a4c0a817c65cfd7bdb4","width":640},{"height":300,"url":"https://mosaic.scdn.co/300/ab67616d0000b27325dd1a3969c0912291b6fc7bab67616d0000b273327abaf9361dd2f153817ce1ab67616d0000b2735b1beffbc87fe6028af43595ab67616d0000b27379c70a4c0a817c65cfd7bdb4","width":300},{"height":60,"url":"https://mosaic.scdn.co/60/ab67616d0000b27325dd1a3969c0912291b6fc7bab67616d0000b273327abaf9361dd2f153817ce1ab67616d0000b2735b1beffbc87fe6028af43595ab67616d0000b27379c70a4c0a817c65cfd7bdb4","width":60}],"name":"warmth","owner":{"display_name":"shino","external_urls":{"spotify":"https://open.spotify.com/user/swagnobu"},"href":"https://api.spotify.com/v1/users/swagnobu","id":"swagnobu","type":"user","uri":"spotify:user:swagnobu"},"primary_color":null,"public":true,"snapshot_id":"MjIzLGY0M2NkMTUzODAwMWY2MmQwOGE0ZWI2ZDdhYTJhNmI3OGM1ZTFjNjc=","tracks":{"href":"https://api.spotify.com/v1/playlists/0lHlZADt0BPMtMcdRrLL2i/tracks","total":203},"type":"playlist","uri":"spotify:playlist:0lHlZADt0BPMtMcdRrLL2i"},{"collaborative":false,"description":"","external_urls":{"spotify":"https://open.spotify.com/playlist/7wrhbdGNDUcneKbpgbEcM4"},"href":"https://api.spotify.com/v1/playlists/7wrhbdGNDUcneKbpgbEcM4","id":"7wrhbdGNDUcneKbpgbEcM4","images":[{"height":640,"url":"https://mosaic.scdn.co/640/ab67616d0000b2730746507c8147aaffa04502deab67616d0000b2732fa40cbb21a5d2c81b143d0aab67616d0000b2735fac805d2819bce730070327ab67616d0000b273f4d3efb3636f1b5ec3ff9d1e","width":640},{"height":300,"url":"https://mosaic.scdn.co/300/ab67616d0000b2730746507c8147aaffa04502deab67616d0000b2732fa40cbb21a5d2c81b143d0aab67616d0000b2735fac805d2819bce730070327ab67616d0000b273f4d3efb3636f1b5ec3ff9d1e","width":300},{"height":60,"url":"https://mosaic.scdn.co/60/ab67616d0000b2730746507c8147aaffa04502deab67616d0000b2732fa40cbb21a5d2c81b143d0aab67616d0000b2735fac805d2819bce730070327ab67616d0000b273f4d3efb3636f1b5ec3ff9d1e","width":60}],"name":"rhyming","owner":{"display_name":"shino","external_urls":{"spotify":"https://open.spotify.com/user/swagnobu"},"href":"https://api.spotify.com/v1/users/swagnobu","id":"swagnobu","type":"user","uri":"spotify:user:swagnobu"},"primary_color":null,"public":false,"snapshot_id":"NTYsNTU0NTg0OTQxMzQ2YjJiYWRjZjc4ZTVmYTBhNjAzYjE1MzgxNTc0Mw==","tracks":{"href":"https://api.spotify.com/v1/playlists/7wrhbdGNDUcneKbpgbEcM4/tracks","total":30},"type":"playlist","uri":"spotify:playlist:7wrhbdGNDUcneKbpgbEcM4"}],"limit":20,"next":"https://api.spotify.com/v1/users/swagnobu/playlists?offset=20&limit=20","offset":0,"previous":null,"total":30}